module cooling75/main

go 1.19

require github.com/influxdata/telegraf v1.24.3

require (
	github.com/blues/jsonata-go v1.5.4 // indirect
	github.com/gobwas/glob v0.2.3 // indirect
	github.com/gogo/protobuf v1.3.2 // indirect
	github.com/golang/protobuf v1.5.2 // indirect
	github.com/golang/snappy v0.0.4 // indirect
	github.com/matttproud/golang_protobuf_extensions v1.0.2-0.20181231171920-c182affec369 // indirect
	github.com/philhofer/fwd v1.1.1 // indirect
	github.com/prometheus/client_model v0.3.0 // indirect
	github.com/prometheus/common v0.37.0 // indirect
	github.com/prometheus/prometheus v1.8.2-0.20210430082741-2a4b8e12bbf2 // indirect
	github.com/tinylib/msgp v1.1.6 // indirect
	google.golang.org/protobuf v1.28.1 // indirect
)
